[{                  "disabled": false,
                    "name": "1981",
                    "value": "1981"
                  },
                  {
                    "disabled": false,
                    "name": "1982",
                    "value": "1982"
                  },
                  {
                    "disabled": false,
                    "name": "1983",
                    "value": "1983"
                  },
                  {
                    "disabled": false,
                    "name": "1984",
                    "value": "1984"
                  },
                  {
                    "disabled": false,
                    "name": "1985",
                    "value": "1985"
                  },
                  {
                    "disabled": false,
                    "name": "1986",
                    "value": "1986"
                  },
                  {
                    "disabled": false,
                    "name": "1987",
                    "value": "1987"
                  },
                  {
                    "disabled": false,
                    "name": "1988",
                    "value": "1988"
                  },
                  {
                    "disabled": false,
                    "name": "1989",
                    "value": "1989"
                  },
                  {
                    "disabled": false,
                    "name": "1990",
                    "value": "1990"
                  },
                  {
                    "disabled": false,
                    "name": "1991",
                    "value": "1991"
                  },
                  {
                    "disabled": false,
                    "name": "1992",
                    "value": "1992"
                  },
                  {
                    "disabled": false,
                    "name": "1993",
                    "value": "1993"
                  },
                  {
                    "disabled": false,
                    "name": "1994",
                    "value": "1994"
                  },
                  {
                    "disabled": false,
                    "name": "1995",
                    "value": "1995"
                  },
                  {
                    "disabled": false,
                    "name": "1996",
                    "value": "1996"
                  },
                  {
                    "disabled": false,
                    "name": "1997",
                    "value": "1997"
                  },
                  {
                    "disabled": false,
                    "name": "1998",
                    "value": "1998"
                  },
                  {
                    "disabled": false,
                    "name": "1999",
                    "value": "1999"
                  },
                  {
                    "disabled": false,
                    "name": "2000",
                    "value": "2000"
                  },
                  {
                    "disabled": false,
                    "name": "2001",
                    "value": "2001"
                  },
                  {
                    "disabled": false,
                    "name": "2002",
                    "value": "2002"
                  },
                  {
                    "disabled": false,
                    "name": "2003",
                    "value": "2003"
                  },
                  {
                    "disabled": false,
                    "name": "2004",
                    "value": "2004"
                  },
                  {
                    "disabled": false,
                    "name": "2005",
                    "value": "2005"
                  },
                  {
                    "disabled": false,
                    "name": "2006",
                    "value": "2006"
                  },
                  {
                    "disabled": false,
                    "name": "2007",
                    "value": "2007"
                  },
                  {
                    "disabled": false,
                    "name": "2008",
                    "value": "2008"
                  },
                  {
                    "disabled": false,
                    "name": "2009",
                    "value": "2009"
                  },
                  {
                    "disabled": false,
                    "name": "2010",
                    "value": "2010"
                  },
                  {
                    "disabled": false,
                    "name": "2011",
                    "value": "2011"
                  },
                  {
                    "disabled": false,
                    "name": "2012",
                    "value": "2012"
                  },
                  {
                    "disabled": false,
                    "name": "2013",
                    "value": "2013"
                  },
                  {
                    "disabled": false,
                    "name": "2014",
                    "value": "2014"
                  },
                  {
                    "disabled": false,
                    "name": "2015",
                    "value": "2015"
                  },
                  {
                    "disabled": false,
                    "name": "2016",
                    "value": "2016"
                  },
                  {
                    "disabled": false,
                    "name": "2017",
                    "value": "2017"
                  },
                  {
                    "disabled": false,
                    "name": "2018",
                    "value": "2018"
                  },
                  {
                    "disabled": false,
                    "name": "2019",
                    "value": "2019"
                  }
            ]
